<?xml version="1.0" encoding="utf-8"?>
<!-- Generator: Adobe Illustrator 17.0.0, SVG Export Plug-In . SVG Version: 6.00 Build 0)  -->
<!DOCTYPE svg PUBLIC "-//W3C//DTD SVG 1.1//EN" "http://www.w3.org/Graphics/SVG/1.1/DTD/svg11.dtd">
<svg version="1.1" id="Calque_1" xmlns="http://www.w3.org/2000/svg" xmlns:xlink="http://www.w3.org/1999/xlink" x="0px" y="0px"
	 width="500px" height="500px" viewBox="0 0 500 500" enable-background="new 0 0 500 500" xml:space="preserve">
<g id="XMLID_599_">
	<path id="XMLID_625_" d="M181.759,250c16.727,0,30.33-13.602,30.33-30.33h-15.165
		c0,8.364-6.801,15.165-15.165,15.165s-15.165-6.801-15.165-15.165h-15.165C151.429,236.398,165.031,250,181.759,250z"/>
	<path id="XMLID_624_" d="M151.429,174.176c0,4.187-3.395,7.582-7.582,7.582c-4.187,0-7.582-3.395-7.582-7.582
		c0-4.187,3.395-7.582,7.582-7.582C148.034,166.594,151.429,169.989,151.429,174.176z"/>
	<path id="XMLID_623_" d="M227.253,174.176c0,4.187-3.395,7.582-7.582,7.582s-7.582-3.395-7.582-7.582
		c0-4.187,3.395-7.582,7.582-7.582S227.253,169.989,227.253,174.176z"/>
	<path id="XMLID_611_" d="M272.747,242.418v60.248l-37.912-12.64v-21.237c12.973-10.729,22.581-25.331,27.212-41.992
		c18.782-2.236,33.447-18.082,33.447-37.456v-60.659c0-62.714-51.022-113.736-113.736-113.736S68.023,65.968,68.023,128.682v60.659
		c0,19.374,14.665,35.22,33.447,37.456c4.632,16.661,14.239,31.262,27.212,41.992v21.237l-77.445,25.827
		c-21.703,7.227-36.29,27.464-36.29,50.341v73.365h257.801v45.494h212.307V292.355l-49.937-49.937H272.747z M439.559,268.304
		l19.608,19.608h-19.608V268.304z M241.251,308.149l-11.559,57.764l-36.242-25.894l35.85-35.85L241.251,308.149z M264.846,210.792
		c0.159-2.084,0.318-4.165,0.318-6.287V167.99c8.804,3.14,15.165,11.481,15.165,21.351
		C280.33,199.326,273.817,207.742,264.846,210.792z M83.188,189.341c0-9.87,6.361-18.212,15.165-21.351v36.516
		c0,2.121,0.159,4.202,0.318,6.287C89.7,207.742,83.188,199.326,83.188,189.341z M99.807,152.051
		c-6.187,1.014-11.822,3.525-16.62,7.157v-30.526c0-54.35,44.221-98.571,98.571-98.571s98.571,44.221,98.571,98.571v30.526
		c-4.798-3.632-10.433-6.142-16.62-7.157c-4.761-17.79-20.981-30.952-40.248-30.952c-8.971,0-17.849,2.966-25.02,8.349
		l-16.683,12.503l-16.675-12.503c-7.179-5.383-16.057-8.349-25.028-8.349C120.789,121.1,104.569,134.261,99.807,152.051z
		 M113.517,204.506v-41.703c0-14.635,11.903-26.538,26.538-26.538c5.709,0,11.359,1.888,15.931,5.309l25.772,19.334l25.779-19.334
		c4.565-3.421,10.215-5.309,15.924-5.309c14.635,0,26.538,11.903,26.538,26.538v41.703c0,37.631-30.611,68.241-68.241,68.241
		S113.517,242.136,113.517,204.506z M181.759,287.912c13.654,0,26.524-3.365,37.912-9.204v13.647l-37.912,37.912l-37.912-37.912
		v-13.647C155.235,284.546,168.104,287.912,181.759,287.912z M134.217,304.169l35.85,35.85l-36.242,25.894l-11.559-57.764
		L134.217,304.169z M90.77,424.395V378.9H75.605v45.494H30.111v-58.201c0-16.342,10.418-30.8,25.924-35.964l51.736-17.242
		l15.779,78.9l58.208-41.581l58.219,41.581l15.776-78.9l16.994,5.657v105.75H90.77z M287.912,469.889V257.582h136.483v45.494h45.494
		v166.812H287.912z"/>
	<path id="XMLID_608_" d="M378.9,454.724h75.824V378.9H378.9V454.724z M394.065,394.065h45.494v45.494h-45.494
		V394.065z"/>
	<path id="XMLID_607_" d="M303.077,439.559h60.659v15.165h-60.659V439.559z"/>
	<path id="XMLID_606_" d="M303.077,409.23h60.659v15.165h-60.659V409.23z"/>
	<path id="XMLID_605_" d="M303.077,378.9h60.659v15.165h-60.659V378.9z"/>
	<path id="XMLID_604_" d="M303.077,272.747h15.165v15.165h-15.165V272.747z"/>
	<path id="XMLID_603_" d="M333.406,272.747h75.824v15.165h-75.824V272.747z"/>
	<path id="XMLID_602_" d="M303.077,303.077H409.23v15.165H303.077V303.077z"/>
	<path id="XMLID_601_" d="M439.559,333.406h15.165v15.165h-15.165V333.406z"/>
	<path id="XMLID_600_" d="M303.077,333.406h121.318v15.165H303.077V333.406z"/>
</g>
</svg>
