<?xml version="1.0" encoding="utf-8"?>
<!-- Generator: Adobe Illustrator 17.0.0, SVG Export Plug-In . SVG Version: 6.00 Build 0)  -->
<!DOCTYPE svg PUBLIC "-//W3C//DTD SVG 1.1//EN" "http://www.w3.org/Graphics/SVG/1.1/DTD/svg11.dtd">
<svg version="1.1" id="Calque_1" xmlns="http://www.w3.org/2000/svg" xmlns:xlink="http://www.w3.org/1999/xlink" x="0px" y="0px"
	 width="500px" height="500px" viewBox="0 0 500 500" enable-background="new 0 0 500 500" xml:space="preserve">
<g id="XMLID_28_">
	<path id="XMLID_57_"  d="M208.836,270.488h-13.446v-13.446h13.446V270.488z M186.427,270.488h-13.446v-13.446h13.446
		V270.488z"/>
	<path id="XMLID_56_"  d="M375.063,172.569v230.22h66.607v-13.446h-53.161V186.015h77.521v203.328h-6.432v13.446
		h19.877v-230.22H375.063z"/>
	<path id="XMLID_684_"  d="M124.937,333.263h-13.446v56.08h-77.52v-169.84h77.52v95.832h13.446V206.058H20.525
		v196.731h104.412V333.263z"/>
	<path id="XMLID_683_"  d="M243.115,241.039h-13.446v148.304h-77.518V138.187h77.518v84.924h13.446v-98.37H138.705
		v278.047h104.409V241.039z"/>
	<path id="XMLID_682_"  d="M361.295,43.428h-34.256v13.446h20.81v332.469h-77.518V56.874h38.78V43.428h-52.226
		v359.361h104.409V43.428z"/>
	<path id="XMLID_55_"  d="M20.525,456.572h458.949v-40.337H20.525V456.572z M33.971,429.68h432.058v13.446H33.971
		V429.68z"/>
</g>
</svg>
