<?xml version="1.0" encoding="utf-8"?>
<!-- Generator: Adobe Illustrator 17.0.0, SVG Export Plug-In . SVG Version: 6.00 Build 0)  -->
<!DOCTYPE svg PUBLIC "-//W3C//DTD SVG 1.1//EN" "http://www.w3.org/Graphics/SVG/1.1/DTD/svg11.dtd">
<svg version="1.1" id="Calque_1" xmlns="http://www.w3.org/2000/svg" xmlns:xlink="http://www.w3.org/1999/xlink" x="0px" y="0px"
	 width="500px" height="500px" viewBox="0 0 500 500" enable-background="new 0 0 500 500" xml:space="preserve">
<g id="XMLID_60_">
	<path id="XMLID_69_" d="M329.078,213.652c7.254-21.605,1.648-45.735-14.529-61.915
		c-16.181-16.177-40.31-21.784-61.919-14.529c-20.931-16.39-43.392-31.002-67.226-43.619c-1.981-1.053-4.358-1.049-6.339,0.014
		c-1.981,1.059-3.306,3.034-3.533,5.266c-4.313,42.312-10.701,85.471-27.979,114.836l-38.071,38.068
		c-2.635,2.638-2.635,6.91,0,9.545c1.317,1.321,3.044,1.978,4.774,1.978c1.727,0,3.454-0.657,4.771-1.978l33.923-33.919
		l85.942,85.942l-72.3,72.3c-2.446,2.446-5.696,3.791-9.157,3.791c-3.46,0-6.714-1.345-9.16-3.791l-67.625-67.625
		c-2.446-2.449-3.794-5.7-3.794-9.16c0-3.46,1.348-6.711,3.794-9.157l19.479-19.479c2.635-2.635,2.635-6.91,0-9.545
		c-2.638-2.635-6.91-2.635-9.545,0l-19.479,19.476c-4.998,4.998-7.75,11.64-7.75,18.705c0,7.065,2.752,13.707,7.75,18.705
		l67.625,67.625c4.995,4.995,11.637,7.746,18.702,7.746c4.757,0,9.318-1.252,13.319-3.588l15.764,15.764
		c3.364,3.364,7.781,5.043,12.201,5.043c2.195,0,4.386-0.416,6.453-1.245l49.921,49.921c4.399,4.399,10.182,6.601,15.964,6.601
		c5.786,0,11.568-2.201,15.967-6.601l9.642-9.642c4.265-4.265,6.615-9.934,6.615-15.967c0-6.033-2.349-11.702-6.615-15.967
		l-49.126-49.126c4.802-6.735,4.2-16.163-1.837-22.2l-15.149-15.149l22.035-22.038c14.846-8.737,34.384-15.4,59.707-20.35
		c3.656-0.715,6.044-4.262,5.328-7.918c-0.715-3.66-4.258-6.044-7.918-5.332c-24.77,4.843-44.51,11.334-60.134,19.792
		l-88.212-88.212c15.606-28.842,22.234-67.605,26.534-106.408c70.742,39.53,128.554,97.345,168.087,168.083
		c-6.566,0.726-12.4,1.431-17.9,2.164c-3.694,0.492-6.291,3.887-5.799,7.585c0.495,3.694,3.887,6.291,7.585,5.796
		c8.018-1.07,16.776-2.081,27.556-3.178c2.236-0.227,4.21-1.551,5.27-3.533c1.059-1.978,1.063-4.355,0.014-6.339
		C360.08,257.048,345.468,234.587,329.078,213.652z M289.775,443.217c0,2.425-0.943,4.706-2.659,6.422l-9.642,9.638
		c-3.539,3.54-9.301,3.54-12.841,0l-48.944-48.944l22.482-22.482l48.944,48.944C288.833,438.512,289.775,440.792,289.775,443.217z
		 M236.153,365.469c1.462,1.462,1.462,3.846,0,5.308l-2.752,2.752l-32.031,32.031c-1.465,1.465-3.846,1.465-5.311,0l-15.149-15.149
		l40.094-40.094L236.153,365.469z M265.835,147.96c14.213-1.82,28.794,2.951,39.168,13.326
		c10.367,10.371,15.142,24.952,13.322,39.165C302.31,181.522,284.764,163.975,265.835,147.96z"/>
	<path id="XMLID_68_" d="M149.148,261.778l-49.639,49.639c-2.638,2.635-2.638,6.91,0,9.545
		c1.317,1.317,3.044,1.978,4.771,1.978s3.457-0.66,4.774-1.978l49.639-49.639c2.635-2.635,2.635-6.91,0-9.545
		C156.055,259.143,151.783,259.143,149.148,261.778z"/>
	<path id="XMLID_67_" d="M166.812,279.441l-49.639,49.639c-2.638,2.635-2.638,6.91,0,9.545
		c1.317,1.317,3.044,1.978,4.771,1.978c1.727,0,3.457-0.66,4.774-1.978l49.639-49.639c2.635-2.635,2.635-6.91,0-9.545
		C173.719,276.806,169.446,276.806,166.812,279.441z"/>
	<path id="XMLID_66_" d="M134.836,356.288c1.317,1.317,3.044,1.978,4.771,1.978c1.727,0,3.457-0.66,4.774-1.978
		l49.639-49.639c2.635-2.635,2.635-6.91,0-9.545c-2.638-2.635-6.91-2.635-9.545,0l-49.639,49.639
		C132.197,349.378,132.197,353.653,134.836,356.288z"/>
	<path id="XMLID_65_" d="M262.825,84.215c3.729,0,6.749-3.024,6.749-6.749V31.322c0-3.725-3.02-6.749-6.749-6.749
		c-3.729,0-6.749,3.024-6.749,6.749v46.144C256.076,81.191,259.096,84.215,262.825,84.215z"/>
	<path id="XMLID_64_" d="M429.897,191.641h-46.144c-3.725,0-6.749,3.024-6.749,6.752
		c0,3.725,3.024,6.749,6.749,6.749h46.144c3.725,0,6.749-3.024,6.749-6.749C436.646,194.665,433.622,191.641,429.897,191.641z"/>
	<path id="XMLID_63_" d="M419.76,140.695c3.447-1.427,5.081-5.376,3.653-8.82c-1.424-3.443-5.373-5.081-8.82-3.653
		l-42.629,17.656c-3.443,1.428-5.077,5.376-3.653,8.82c1.077,2.6,3.591,4.169,6.24,4.169c0.86,0,1.737-0.165,2.58-0.516
		L419.76,140.695z"/>
	<path id="XMLID_62_" d="M348.334,119.634c1.727,0,3.457-0.657,4.774-1.978l32.626-32.626
		c2.638-2.635,2.638-6.91,0-9.545c-2.635-2.635-6.907-2.635-9.545,0l-32.629,32.626c-2.635,2.635-2.635,6.91,0,9.545
		C344.88,118.977,346.607,119.634,348.334,119.634z"/>
	<path id="XMLID_61_" d="M306.52,92.907c0.843,0.351,1.72,0.516,2.58,0.516c2.649,0,5.163-1.572,6.24-4.169
		l17.656-42.632c1.427-3.443-0.21-7.392-3.653-8.82c-3.447-1.424-7.392,0.21-8.82,3.653l-17.656,42.632
		C301.44,87.531,303.074,91.479,306.52,92.907z"/>
</g>
</svg>
