<?xml version="1.0" encoding="utf-8"?>
<!-- Generator: Adobe Illustrator 17.0.0, SVG Export Plug-In . SVG Version: 6.00 Build 0)  -->
<!DOCTYPE svg PUBLIC "-//W3C//DTD SVG 1.1//EN" "http://www.w3.org/Graphics/SVG/1.1/DTD/svg11.dtd">
<svg version="1.1" id="Calque_1" xmlns="http://www.w3.org/2000/svg" xmlns:xlink="http://www.w3.org/1999/xlink" x="0px" y="0px"
	 width="500px" height="500px" viewBox="0 0 500 500" enable-background="new 0 0 500 500" xml:space="preserve">
<g id="XMLID_433_">
	<g id="XMLID_434_">
		<path id="XMLID_435_"  d="M432.244,325.727h-11.26v-87.861c0-1.477-0.485-2.912-1.381-4.086l-32.39-42.469
			c3.15-4.14,5.024-9.3,5.024-14.891c0-13.588-11.056-24.644-24.644-24.644s-24.644,11.055-24.644,24.644
			c0,13.589,11.055,24.644,24.644,24.644c3.118,0,6.1-0.588,8.849-1.65l31.063,40.73v85.584h-32.21v-19.536
			c0-3.721-3.017-6.738-6.738-6.738s-6.738,3.017-6.738,6.738v19.536h-29.233V272.97c0-3.721-3.017-6.738-6.738-6.738
			s-6.738,3.017-6.738,6.738v52.757h-40.794l-11.637-68.75l3.272-4.924c2.897,2.057,5.767,3.517,9.98,2.464
			c3.06-0.765,5.623-2.824,7.032-5.647l16.439-32.946l37.539,14.538c1.023,0.442,20.879,9.355,20.879,32.676v11.606
			c0,3.721,3.017,6.738,6.738,6.738c3.721,0,6.738-3.017,6.738-6.738v-11.606c0-32.747-28.077-44.666-29.272-45.157
			c-0.042-0.018-0.085-0.035-0.128-0.051l-63.545-24.61v-13.524c9.959-7.95,16.942-19.479,18.957-32.628
			c4.963-0.563,9.568-2.519,13.375-5.794c5.347-4.598,8.414-11.288,8.414-18.355c0-5.692-1.991-11.138-5.558-15.444V88.116
			c0-37.561-30.559-68.119-68.119-68.119s-68.119,30.558-68.119,68.119v19.965c-3.605,4.254-5.555,9.441-5.555,14.933
			c0,7.067,3.066,13.759,8.414,18.357c3.818,3.283,8.437,5.242,13.417,5.798c2.039,12.823,8.985,25.141,20,33.457v12.692
			l-63.476,24.609c-0.042,0.016-0.084,0.033-0.127,0.05c-1.196,0.491-29.272,12.411-29.272,45.157v62.59h-32.21v-85.584
			l31.063-40.73c2.748,1.061,5.73,1.65,8.849,1.65c13.589,0,24.644-11.055,24.644-24.644s-11.055-24.644-24.644-24.644
			c-13.588,0-24.644,11.055-24.644,24.644c0,5.591,1.875,10.752,5.024,14.891l-32.39,42.469c-0.896,1.174-1.381,2.61-1.381,4.086
			v87.861H67.756c-8.218,0-14.903,6.685-14.903,14.903v34.936c0,8.212,6.675,14.891,14.884,14.902v75.505
			c0,7.738,6.295,14.033,14.033,14.033h152.507c3.721,0,6.738-3.017,6.738-6.738s-3.017-6.738-6.738-6.738H81.769
			c-0.306,0-0.555-0.249-0.555-0.555v-75.504h337.572v75.504c0,0.306-0.249,0.555-0.555,0.555H265.723
			c-3.721,0-6.738,3.017-6.738,6.738s3.017,6.738,6.738,6.738H418.23c7.738,0,14.033-6.295,14.033-14.033v-75.505
			c8.209-0.011,14.884-6.691,14.884-14.902v-34.935C447.147,332.411,440.462,325.727,432.244,325.727z M367.595,187.584
			c-6.156,0-11.166-5.009-11.166-11.166c0-6.157,5.009-11.166,11.166-11.166c6.157,0,11.166,5.009,11.166,11.166
			C378.761,182.649,373.621,187.584,367.595,187.584z M132.405,165.253c6.157,0,11.166,5.009,11.166,11.166
			c0,6.157-5.009,11.166-11.166,11.166c-6.026,0-11.166-4.935-11.166-11.166C121.239,170.262,126.249,165.253,132.405,165.253z
			 M290.778,211.034l-14.471,29.001c-0.046-0.032-4.372-3.106-16.585-11.781c11.599-14.318,12.163-15.014,18.036-22.263
			L290.778,211.034z M249.982,237.87l8.975,6.373l-2.982,4.488H243.99l-2.981-4.487L249.982,237.87z M231.056,195.503v-7.604
			c6.172,2.213,12.84,3.213,19.019,3.213c6.565,0,13.152-1.323,18.798-3.529v7.963l-18.891,23.319L231.056,195.503z
			 M246.071,262.209h7.824l10.751,63.516H235.32L246.071,262.209z M309.619,123.015c0,3.136-1.357,6.101-3.723,8.136
			c-1.166,1.003-2.515,1.738-3.988,2.188v-20.637C306.544,114.125,309.619,118.281,309.619,123.015z M196.938,133.34
			c-1.473-0.45-2.823-1.184-3.987-2.186c-2.368-2.035-3.725-5.001-3.725-8.139c0-3.485,1.955-5.94,3.33-7.237
			c0.022-0.02,0.046-0.037,0.068-0.058c1.248-1.157,2.737-2.039,4.314-2.631V133.34z M200.438,94.602
			c-1.312,1.216-2.364,2.9-2.901,4.459c-0.926,0.139-1.845,0.33-2.754,0.568V88.116h-0.003c0-30.13,24.512-54.641,54.641-54.641
			s54.641,24.513,54.641,54.641v11.199c-0.712-0.161-1.434-0.287-2.163-0.386c-0.069-2.39-0.639-3.835-2.879-6.556
			c-2.08-2.523-5.828-6.384-14.435-15.633c-3.586-3.854-9.465-4.645-13.966-1.703c-18.391,12.014-40.963,18.19-61.949,16.687
			C205.663,91.495,202.659,92.543,200.438,94.602z M210.415,139.281v-33.61v-0.348c12.679,0.557,25.659-1.287,37.988-5.119
			c9.707-3.017,19.111-7.297,27.768-12.722c2.465,2.645,4.499,4.813,6.178,6.603c0.113,0.12,0.219,0.234,0.33,0.352
			c0.602,0.641,1.178,1.256,1.714,1.829c1.84,1.966,3.26,3.5,4.035,4.403v38.612c0,21.176-17.274,38.354-38.355,38.354
			C226.798,177.635,210.415,159.725,210.415,139.281z M222.181,206.002l18.041,22.269c-7.803,5.542-15.722,11.168-16.564,11.766
			l-14.471-29.002L222.181,206.002z M138.18,263.136L138.18,263.136c0.001-23.288,19.63-32.137,20.883-32.677l37.499-14.538
			L213,248.868v0.001c1.848,3.701,5.606,5.968,9.654,5.968c3.71,0,5.897-1.749,7.358-2.787l3.272,4.924l-11.637,68.75h-40.757
			v-52.757c0-3.721-3.017-6.738-6.738-6.738c-3.721,0-6.738,3.017-6.738,6.738v52.757H138.18L138.18,263.136L138.18,263.136z
			 M433.669,375.565c0,0.786-0.639,1.425-1.425,1.425c-9.64,0-356.339,0-364.489,0c-0.786,0-1.425-0.64-1.425-1.425v-34.936
			c0-0.786,0.639-1.425,1.425-1.425c11.928,0,355.485,0,364.489,0c0.786,0,1.425,0.639,1.425,1.425V375.565z"/>
	</g>
</g>
</svg>
