<?xml version="1.0" encoding="utf-8"?>
<!-- Generator: Adobe Illustrator 17.0.0, SVG Export Plug-In . SVG Version: 6.00 Build 0)  -->
<!DOCTYPE svg PUBLIC "-//W3C//DTD SVG 1.1//EN" "http://www.w3.org/Graphics/SVG/1.1/DTD/svg11.dtd">
<svg version="1.1" id="Calque_1" xmlns="http://www.w3.org/2000/svg" xmlns:xlink="http://www.w3.org/1999/xlink" x="0px" y="0px"
	 width="500px" height="500px" viewBox="0 0 500 500" enable-background="new 0 0 500 500" xml:space="preserve">
<g id="XMLID_2637_">
	<path id="XMLID_2642_"  d="M423.529,334.4h-0.028c-13.379-0.007-20.933-6.95-25.257-23.201
		c-4.419-16.62-4.569-40.723-4.725-66.242c-0.188-30.919-0.401-65.962-8.086-97.303c-0.909-3.706-4.654-5.974-8.36-5.066
		c-3.702,0.909-5.971,4.65-5.066,8.356c7.302,29.761,7.508,63.942,7.692,94.097c0.163,26.425,0.312,51.383,5.186,69.707
		c2.119,7.969,5.158,14.519,9.084,19.652H106.03c3.926-5.133,6.965-11.682,9.084-19.652c4.874-18.324,5.026-43.282,5.186-69.707
		c0.245-40.343,0.525-86.068,17.032-121.062c18.58-39.392,55.433-58.543,112.67-58.543c31.433,0,57.155,5.907,76.448,17.561
		c16.73,10.103,29.012,24.462,37.55,43.897c1.533,3.493,5.612,5.083,9.105,3.546c3.493-1.534,5.083-5.609,3.55-9.105
		c-9.588-21.824-24.075-38.703-43.059-50.169c-12.119-7.32-26.35-12.598-42.558-15.814c-1.633-21.217-19.407-37.99-41.035-37.99
		s-39.406,16.776-41.028,37.997c-15.463,3.063-29.133,8.001-40.865,14.799c-18.878,10.94-33.439,27.067-43.279,47.926
		c-17.806,37.752-18.097,85.099-18.349,126.873c-0.156,25.519-0.302,49.622-4.725,66.242c-4.324,16.251-11.878,23.194-25.257,23.201
		h-0.028c-22.339,0-40.514,18.175-40.514,40.517c0,22.339,18.175,40.514,40.514,40.514h43.737c3.816,0,6.911-3.095,6.911-6.911
		s-3.095-6.908-6.911-6.908H76.471c-14.717,0-26.694-11.977-26.694-26.694s11.973-26.691,26.691-26.694h0.004h0.025h347.005h0.025
		h0.007c14.714,0.004,26.687,11.977,26.687,26.694s-11.977,26.694-26.694,26.694H147.85c-3.816,0-6.908,3.092-6.908,6.908
		s3.092,6.911,6.908,6.911h28.366c3.497,37.642,35.246,67.208,73.786,67.208c38.536,0,70.286-29.566,73.782-67.208h99.745
		c22.339,0,40.514-18.175,40.514-40.514C464.043,352.574,445.868,334.4,423.529,334.4z M250.002,31.181
		c13.234,0,24.302,9.453,26.811,21.959c-8.484-1.001-17.415-1.523-26.811-1.523c-9.396,0-18.327,0.518-26.808,1.519
		C225.704,40.631,236.768,31.181,250.002,31.181z M250.002,468.819c-30.911,0-56.452-23.386-59.892-53.389h119.78
		C306.45,445.433,280.91,468.819,250.002,468.819z"/>
	<path id="XMLID_2641_"  d="M360.954,60.729c0.124,0.067,12.428,7.089,24.533,23.4
		c16.215,21.845,24.433,49.136,24.433,81.116c0,3.816,3.095,6.911,6.911,6.911s6.911-3.095,6.911-6.911
		c0-44.024-15.033-73.246-27.646-90.005c-13.858-18.416-27.848-26.272-28.437-26.598c-3.333-1.839-7.515-0.632-9.368,2.691
		C356.438,54.659,357.635,58.862,360.954,60.729z"/>
	<path id="XMLID_2640_"  d="M413.089,63.264c1.111,0.728,27.234,18.26,27.234,62.37c0,3.816,3.095,6.908,6.911,6.908
		s6.908-3.092,6.908-6.908c0-52.026-32.228-73.136-33.602-74.009c-3.205-2.041-7.444-1.097-9.503,2.101
		C408.979,56.921,409.905,61.187,413.089,63.264z"/>
	<path id="XMLID_2639_"  d="M83.166,172.157c3.816,0,6.911-3.095,6.911-6.911c0-31.98,8.221-59.271,24.433-81.116
		c12.03-16.208,24.259-23.244,24.529-23.4c3.326-1.849,4.533-6.045,2.691-9.379c-1.849-3.34-6.052-4.551-9.393-2.708
		c-0.589,0.327-14.579,8.182-28.437,26.598c-12.609,16.758-27.642,45.98-27.642,90.005C76.258,169.062,79.35,172.157,83.166,172.157
		z"/>
	<path id="XMLID_2638_"  d="M52.766,132.541c3.816,0,6.908-3.092,6.908-6.908c0-44.074,26.084-61.617,27.234-62.366
		c3.195-2.055,4.132-6.312,2.091-9.521c-2.048-3.22-6.319-4.167-9.542-2.119c-1.37,0.873-33.602,21.98-33.602,74.006
		C45.854,129.45,48.95,132.541,52.766,132.541z"/>
</g>
</svg>
