<?xml version="1.0" encoding="utf-8"?>
<!-- Generator: Adobe Illustrator 17.0.0, SVG Export Plug-In . SVG Version: 6.00 Build 0)  -->
<!DOCTYPE svg PUBLIC "-//W3C//DTD SVG 1.1//EN" "http://www.w3.org/Graphics/SVG/1.1/DTD/svg11.dtd">
<svg version="1.1" id="Calque_1" xmlns="http://www.w3.org/2000/svg" xmlns:xlink="http://www.w3.org/1999/xlink" x="0px" y="0px"
	 width="500px" height="500px" viewBox="0 0 500 500" enable-background="new 0 0 500 500" xml:space="preserve">
<g id="XMLID_2297_">
	<path id="XMLID_2304_"  d="M88.343,213.34H193.42c4.47,0,8.083-3.621,8.083-8.083s-3.613-8.083-8.083-8.083H88.343
		c-4.47,0-8.083,3.621-8.083,8.083S83.873,213.34,88.343,213.34z"/>
	<path id="XMLID_2303_"  d="M298.497,245.672H88.343c-4.47,0-8.083,3.621-8.083,8.083
		c0,4.462,3.613,8.083,8.083,8.083h210.154c4.47,0,8.083-3.621,8.083-8.083C306.58,249.293,302.967,245.672,298.497,245.672z"/>
	<path id="XMLID_2302_"  d="M298.497,294.169H88.343c-4.47,0-8.083,3.621-8.083,8.083
		c0,4.462,3.613,8.083,8.083,8.083h210.154c4.47,0,8.083-3.621,8.083-8.083C306.58,297.79,302.967,294.169,298.497,294.169z"/>
	<path id="XMLID_2298_"  d="M444.57,28l-275.965-0.566c-26.431,0-47.931,21.5-47.931,47.931v41.417l-65.229,0.137
		c-26.431,0-47.931,21.5-47.931,47.931v170.88c0,26.431,21.5,47.923,47.931,47.923h49.063v80.828c0,3.338,2.053,6.337,5.173,7.541
		c0.946,0.364,1.932,0.542,2.91,0.542c2.231,0,4.421-0.93,5.981-2.643l78.436-86.284l134.385-0.55
		c26.431,0,47.931-21.5,47.931-47.923v-0.913l42.516,46.767c1.56,1.714,3.75,2.643,5.981,2.643c0.978,0,1.964-0.178,2.91-0.542
		c3.12-1.204,5.173-4.203,5.173-7.541v-80.829h8.649c26.431,0,47.931-21.5,47.931-47.923V75.932
		C492.485,49.509,470.993,28.009,444.57,28z M363.16,335.157c0,17.516-14.25,31.758-31.798,31.758l-137.974,0.566
		c-2.263,0.008-4.429,0.97-5.949,2.643l-66.764,73.449v-68.009c0-4.462-3.613-8.083-8.083-8.083H55.446
		c-17.516,0-31.766-14.25-31.766-31.758v-170.88c0-17.516,14.25-31.766,31.782-31.766l73.295-0.154l0,0c0.008,0,0.008,0,0.008,0
		l202.629-0.42c17.516,0,31.766,14.25,31.766,31.766v149.056V335.157z M476.32,246.811c0,17.516-14.25,31.758-31.766,31.758h-16.731
		c-4.47,0-8.083,3.621-8.083,8.083v68.009l-40.414-44.456V164.277c0-26.431-21.5-47.931-47.947-47.931l-194.538,0.396V75.358
		c0-17.516,14.25-31.766,31.749-31.766l275.957,0.566c0,0,0.008,0,0.016,0c17.516,0,31.766,14.25,31.766,31.766v170.888H476.32z"/>
</g>
</svg>
