<?xml version="1.0" encoding="utf-8"?>
<!-- Generator: Adobe Illustrator 17.0.0, SVG Export Plug-In . SVG Version: 6.00 Build 0)  -->
<!DOCTYPE svg PUBLIC "-//W3C//DTD SVG 1.1//EN" "http://www.w3.org/Graphics/SVG/1.1/DTD/svg11.dtd">
<svg version="1.1" id="Calque_1" xmlns="http://www.w3.org/2000/svg" xmlns:xlink="http://www.w3.org/1999/xlink" x="0px" y="0px"
	 width="500px" height="500px" viewBox="0 0 500 500" enable-background="new 0 0 500 500" xml:space="preserve">
<g id="XMLID_74_">
	<path id="XMLID_131_"  d="M159.353,61.655h14v13.124h-14V61.655z"/>
	<path id="XMLID_130_"  d="M187.353,61.655h14v13.124h-14V61.655z"/>
	<path id="XMLID_129_"  d="M215.353,61.655h14v13.124h-14V61.655z"/>
	<path id="XMLID_125_"  d="M137.477,368.782h115.595l20.564-20.564l-20.564-20.56H137.477V39.779h168.879v77h83.124
		v-16.716l-73.408-73.408H124.353v301.002h-84v41.124h41.124v-28h166.159l7.436,7.436l-7.436,7.44H96.353v13.124h28v35h168.003
		v-13.124H137.477V368.782z M319.48,48.623l55.032,55.032H319.48V48.623z M68.353,355.657H53.477v-14.876h14.876V355.657z"/>
	<path id="XMLID_124_"  d="M215.353,131.655h140.003v13.128H215.353V131.655z"/>
	<path id="XMLID_123_"  d="M215.353,96.655h77.003v13.124h-77.003V96.655z"/>
	<path id="XMLID_122_"  d="M159.353,96.655h42v13.124h-42V96.655z"/>
	<path id="XMLID_121_"  d="M215.353,159.655h77.003v13.128h-77.003V159.655z"/>
	<path id="XMLID_118_"  d="M200.48,131.655h-41.127v41.127h41.127V131.655z M187.353,159.655h-14.872v-14.872h14.872
		V159.655z"/>
	<path id="XMLID_117_"  d="M215.353,194.655h140.003v13.128H215.353V194.655z"/>
	<path id="XMLID_116_"  d="M215.353,222.654h77.003v13.128h-77.003V222.654z"/>
	<path id="XMLID_113_"  d="M200.48,194.655h-41.127v41.127h41.127V194.655z M187.353,222.654h-14.872v-14.872h14.872
		V222.654z"/>
	<path id="XMLID_112_"  d="M215.353,257.658h140.003v13.124H215.353V257.658z"/>
	<path id="XMLID_111_"  d="M215.353,285.658h77.003v13.124h-77.003V285.658z"/>
	<path id="XMLID_108_"  d="M159.353,298.782h41.127v-41.124h-41.127V298.782z M172.481,270.782h14.872v14.876h-14.872
		V270.782z"/>
	<path id="XMLID_79_"  d="M383.356,348.218c-26.78,0-48.564,21.787-48.564,48.564
		c0,26.78,21.784,48.564,48.564,48.564c26.776,0,48.564-21.784,48.564-48.564C431.919,370.005,410.132,348.218,383.356,348.218z
		 M383.356,432.221c-19.541,0-35.44-15.898-35.44-35.44s15.898-35.436,35.44-35.436s35.436,15.895,35.436,35.436
		S402.897,432.221,383.356,432.221z"/>
	<path id="XMLID_76_"  d="M389.48,320.504V130.782h-13.124v189.722c-38.5,3.34-69.782,36.271-69.782,76.277
		c0,42.218,34.455,76.564,76.673,76.564s76.4-34.346,76.4-76.564C459.647,356.775,428.856,323.844,389.48,320.504z M383.356,460.221
		c-34.979,0-63.439-28.46-63.439-63.439s28.46-63.436,63.439-63.436s63.436,28.457,63.436,63.436S418.335,460.221,383.356,460.221z"
		/>
	<path id="XMLID_75_"  d="M376.356,394.065l-11.86,12.074l9.171,9.283l15.813-15.922v-23.72h-13.124V394.065z"/>
</g>
</svg>
