<?xml version="1.0" encoding="utf-8"?>
<!-- Generator: Adobe Illustrator 17.0.0, SVG Export Plug-In . SVG Version: 6.00 Build 0)  -->
<!DOCTYPE svg PUBLIC "-//W3C//DTD SVG 1.1//EN" "http://www.w3.org/Graphics/SVG/1.1/DTD/svg11.dtd">
<svg version="1.1" id="Calque_1" xmlns="http://www.w3.org/2000/svg" xmlns:xlink="http://www.w3.org/1999/xlink" x="0px" y="0px"
	 width="500px" height="500px" viewBox="0 0 500 500" enable-background="new 0 0 500 500" xml:space="preserve">
<g id="XMLID_2569_">
	<path id="XMLID_2582_"  d="M236.756,250.575c-3.504,3.493-3.504,9.167,0,12.671c3.504,3.504,9.174,3.504,12.671,0
		c3.504-3.504,3.504-9.178,0-12.671C245.93,247.071,240.259,247.071,236.756,250.575z"/>
	<path id="XMLID_2572_"  d="M379.236,46.823c-15.377,11.904-19.566,18.04-74.1,72.01l-32.692-5.324l15.002-15.002
		c10.508-10.508,10.511-27.508,0-38.016c-10.504-10.504-27.515-10.508-38.02,0l-42.374,42.374L58.86,78.738
		c-9.577-1.554-19.374,1.614-26.227,8.467c-13.178,13.178-11.39,34.981,3.644,45.86l147.679,106.946l-27.648,27.652
		c-9.475,9.475-19.447,22.507-29.696,38.779L57.739,286.19c-10.165-2.986-21.141-0.189-28.649,7.305
		c-12.783,12.783-10.851,34.012,3.997,44.296l56.459,39.084c-9.829,21.691-15.804,37.376-16.08,38.1
		c-1.253,3.297-0.452,7.025,2.041,9.517c2.506,2.506,6.237,3.287,9.517,2.041c0.725-0.273,16.409-6.251,38.1-16.08l39.087,56.462
		c10.301,14.872,31.53,16.756,44.299,3.987c7.491-7.501,10.287-18.478,7.298-28.642l-20.249-68.867
		c16.283-10.256,29.307-20.228,38.779-29.696l27.652-27.652l106.943,147.679c10.896,15.058,32.699,16.808,45.864,3.644
		c6.85-6.85,10.018-16.654,8.467-26.234l-24.127-148.183l42.37-42.37c10.508-10.508,10.508-27.519,0-38.023
		c-10.504-10.508-27.505-10.508-38.013,0l-15.006,15.002l-5.32-32.692c54.026-54.59,60.064-58.682,71.975-74.058
		c0.014-0.017,0.031-0.038,0.046-0.06c27.638-35.818,34.106-71.993,16.084-90.023C451.247,12.709,415.068,19.171,379.236,46.823z
		 M262.097,73.166c3.5-3.504,9.174-3.504,12.678,0c3.504,3.504,3.5,9.164,0,12.667l-24.131,24.127l-21.796-3.549L262.097,73.166z
		 M46.784,118.546c-6.132-4.435-6.836-13.315-1.477-18.67c2.79-2.793,6.787-4.085,10.679-3.451l233.536,38.023l-92.732,92.728
		L46.784,118.546z M41.761,306.173c2.863-2.86,7.049-3.931,10.924-2.79l64.415,18.943c-6.587,11.537-13.234,24.281-19.864,38.076
		L43.29,323.058C37.631,319.138,36.889,311.042,41.761,306.173z M193.832,458.237c-4.83,4.83-12.937,4.179-16.889-1.526
		L139.6,402.762c13.805-6.636,26.553-13.287,38.076-19.86l18.94,64.411C197.756,451.191,196.688,455.378,193.832,458.237z
		 M414.169,225.226c3.5-3.5,9.164-3.504,12.667,0c3.504,3.504,3.5,9.174,0,12.678l-33.249,33.245l-3.546-21.796L414.169,225.226z
		 M403.573,444.005c0.634,3.903-0.658,7.9-3.448,10.69c-5.331,5.331-14.218,4.68-18.674-1.481l-108.63-150.003l92.732-92.732
		L403.573,444.005z M219.667,331.021c-9.86,9.864-24.292,20.511-42.892,31.653c-24.18,14.48-52.794,28.194-78.605,39.157
		c11.26-26.511,25.233-55.587,40.025-80.043c10.819-17.9,21.176-31.849,30.785-41.453C387.864,61.975,374.896,73.239,388.179,62.616
		c14.736-0.942,27.708,3.434,36.739,12.464c9.031,9.031,13.409,22.006,12.468,36.739
		C426.738,125.134,437.869,112.291,219.667,331.021z M452.72,88.273c-2.863-9.878-7.949-18.684-15.128-25.863
		c-7.179-7.175-15.986-12.265-25.86-15.128c12.968-6.577,34.806-13.941,44.87-3.885C464.548,51.345,462.574,68.843,452.72,88.273z"
		/>
	<path id="XMLID_2571_"  d="M287.446,199.885l-25.342,25.338c-3.5,3.5-3.5,9.174,0,12.674
		c3.5,3.5,9.171,3.497,12.674,0l25.338-25.342c3.5-3.497,3.5-9.171,0-12.671C296.617,196.385,290.946,196.385,287.446,199.885z"/>
	<path id="XMLID_2570_"  d="M338.137,149.194l-25.352,25.349c-3.497,3.5-3.497,9.174,0,12.674
		c3.504,3.497,9.174,3.497,12.674,0l25.349-25.349c3.5-3.5,3.5-9.174,0-12.674S341.637,145.694,338.137,149.194z"/>
</g>
</svg>
