<?xml version="1.0" encoding="utf-8"?>
<!-- Generator: Adobe Illustrator 17.0.0, SVG Export Plug-In . SVG Version: 6.00 Build 0)  -->
<!DOCTYPE svg PUBLIC "-//W3C//DTD SVG 1.1//EN" "http://www.w3.org/Graphics/SVG/1.1/DTD/svg11.dtd">
<svg version="1.1" id="Calque_1" xmlns="http://www.w3.org/2000/svg" xmlns:xlink="http://www.w3.org/1999/xlink" x="0px" y="0px"
	 width="500px" height="500px" viewBox="0 0 500 500" enable-background="new 0 0 500 500" xml:space="preserve">
<g id="XMLID_200_">
	<g id="XMLID_2817_">
		<g id="XMLID_2824_">
			<g id="XMLID_2825_">
				<path id="XMLID_2826_"  d="M415.117,84.884C371.013,40.778,312.374,16.489,250,16.489
					S128.987,40.778,84.884,84.884C40.778,128.987,16.489,187.626,16.489,250s24.289,121.013,68.395,165.117
					c44.103,44.105,102.742,68.394,165.116,68.394s121.013-24.289,165.117-68.394c44.105-44.104,68.394-102.743,68.394-165.117
					S459.222,128.987,415.117,84.884z M250,464.905C131.501,464.905,35.095,368.5,35.095,250S131.501,35.095,250,35.095
					S464.905,131.501,464.905,250S368.499,464.905,250,464.905z"/>
			</g>
		</g>
		<g id="XMLID_2821_">
			<g id="XMLID_2822_">
				<path id="XMLID_2823_"  d="M438.023,288.43c-4.984-1.27-10.045,1.74-11.311,6.72
					c-5.189,20.377-13.826,39.566-25.67,57.035c-2.883,4.253-1.772,10.037,2.48,12.922c1.599,1.084,3.415,1.604,5.213,1.604
					c2.981,0,5.911-1.43,7.709-4.085c13.056-19.256,22.577-40.414,28.299-62.884C446.011,294.762,443.003,289.697,438.023,288.43z"
					/>
			</g>
		</g>
		<g id="XMLID_2818_">
			<g id="XMLID_2819_">
				<path id="XMLID_2820_"  d="M441.647,240.697c-5.137,0-9.303,4.166-9.303,9.303c0,2.659-0.057,5.341-0.171,7.971
					c-0.223,5.134,3.759,9.475,8.893,9.696c0.137,0.006,0.273,0.009,0.409,0.009c4.953,0,9.071-3.906,9.288-8.902
					c0.126-2.897,0.189-5.849,0.189-8.775C450.95,244.863,446.784,240.697,441.647,240.697z"/>
			</g>
		</g>
	</g>
	<g id="XMLID_2814_">
		<path id="XMLID_2816_"  d="M250.001,349.99c-4.608,0-8.332,3.725-8.332,8.332v16.665
			c0,4.608,3.725,8.332,8.332,8.332c4.608,0,8.332-3.725,8.332-8.332v-16.665C258.333,353.714,254.609,349.99,250.001,349.99z"/>
		<path id="XMLID_2815_"  d="M250.942,116.689c-0.317,0-0.633-0.008-0.958-0.008
			c-17.631,0-34.213,6.791-46.787,19.198c-12.799,12.624-19.856,29.48-19.856,47.462c0,4.608,3.725,8.332,8.332,8.332
			s8.332-3.725,8.332-8.332c0-13.482,5.291-26.131,14.89-35.596c9.607-9.474,22.398-14.707,35.821-14.39
			c26.339,0.367,48.903,22.931,49.27,49.27c0.242,17.365-8.324,33.346-22.923,42.762c-22.164,14.298-35.396,39.563-35.396,67.593
			v23.681c0,4.608,3.725,8.332,8.332,8.332c4.608,0,8.332-3.725,8.332-8.332v-23.681c0-22.014,10.632-42.537,27.764-53.594
			c19.456-12.549,30.88-33.855,30.555-56.994C316.152,146.669,286.672,117.189,250.942,116.689z"/>
	</g>
</g>
</svg>
