{
  "type": "service_account",
  "project_id": "ceuapp-prod",
  "private_key_id": "7582373b1e511ccd37bcf5c30471e23c3af038be",
  "private_key": "-----BEGIN PRIVATE KEY-----\nMIIEvgIBADANBgkqhkiG9w0BAQEFAASCBKgwggSkAgEAAoIBAQDNwQN6nXCM+4zs\nfRqpD30IqY/zCdI1m4zewM/ed9pedxLYgoJ0Cb+BgmHARtrN49OL6KU/4Cx0krZD\n3XCrBqsi51BxyYzmT5XW6yTvkJzv4jY8MIsetuidM3+zHMukbX261FnmPW/r0WQH\n/chopuqbImmqpsYLNN18aRCYWRz43Gy4pxEmMk+KkHL/lV/rfwRPT+JyvhKfBL3t\nEqDx9wJAUOCGbjTJ5L2Rb4dC0ZU8PWlvCjE7l8N4EzwppQ+ilin6H/WTWVw6LtQh\nxW5trMfMNXk6VHCTwSAVQeX41gmdTdWC/M7qK8MRKLhqfF0lLKUwEDvfnqYs6adW\n4/9XkZ0BAgMBAAECggEAAKK4xt6Gkb3pFpa8UHjOKghk5hoOyb8srbw07Gqroqmo\nso6NVpmyWrZJlQB+NGHt2GLByRDRFamP6ibLnEgtSM+X4gSsheaQ3vwN1SXbqlV8\nJTNJdIzJ5i2r6xYQ9fgW2bIMdC6Wpuq+v+KgjMju2L3TS5K70Daw6DYF3M8nLVER\nU5JbcMu7codNGmCfs+EZtgNIyClY+mzEnR3JhfBn8NPeSxPihKmbetoXfAmSV5CS\nx2uOI0TE+xXsoqWtMhWgfNg5e3zl8tegjX6H/06jNqhrodWKW0c5JXRvuMkAlJyY\nUgN2u5JqWXOsSwveTAeL4rSeBMXQ2xdlRpndUu0+6wKBgQDwkVlGZVLdx2uV7nlb\n/k+CM8Jk4ckDQNm0Zo/TROlgytdjn7uBdvpdMVz/EMFDM2tUCy460UNh7pL/m+D3\nOS22TcxFQQGdMpXoJZWVkp9TQdnhJmu5LXXH/arfu6j8+oWUq4m+OaqPyq3gD3Ke\nf2Ljys0GWGUnzZqed1mbaZILKwKBgQDa8/IUx57gnoTdnchzFdY3O0z6Sez5hByg\nV4rDJKfRHdNxnQdCroYLMmQCK1xEbi18wn7q76RPNQXqW9H23EpM7eFz01KgKhgz\noUGbiD2Yyakb9fDZYwhIDLa74dFSNuqfPRd87qgFH9OeRawo9x/hTt5zbwclvZ7Z\nl6kFwTaygwKBgQCr2SjNANSRWUOhdxl6fdCOUisrpZ7SlCDwndNgOHn+iugSYqiv\ncy6mI/0qt+1W9ARXpSUBHzvjWWno7pFmCZJ+CFVDo4xjnx83FqIklvj5oLDkBW4u\neisJEkxeRtAQ52VFLsTW/pq43TAYPvDCCH27+8M6JSsdo+IwEVIRkvigwQKBgG4Q\n7aPWiZ6e8Wm6tJZt5sbTD6pOWUtBR2avOzlIBviPhsh5SLoTo5yjUzTn+TUJMeKi\nn0yY9T9AB149lDoFmXA8sPYZyFJtdscVjDaUcWqKDXHZ255cM0CM65tdNG2g36b2\n/gS2sE4LJsVMfvQE7sjDbf4XVT96qAz4OWaEL2vjAoGBALnETIVOUBdEmtD4w1Ht\nP3VmkcRXnZd0ovfTeyilnrFzW62ll5TYkeBsgycEjxeQLGR8gxRi/YigdDPKl0mG\nx1OvfUgqWlk4utR3gEUgOKSJnHfDmMYbmXdDMAyfyboY1jtx0gFaA1GjAMCB9EZ9\n+/rk9l8Pq+Sj5K12BWh44xWP\n-----END PRIVATE KEY-----\n",
  "client_email": "firebase-adminsdk-y8ueu@ceuapp-prod.iam.gserviceaccount.com",
  "client_id": "104569368923628739207",
  "auth_uri": "https://accounts.google.com/o/oauth2/auth",
  "token_uri": "https://oauth2.googleapis.com/token",
  "auth_provider_x509_cert_url": "https://www.googleapis.com/oauth2/v1/certs",
  "client_x509_cert_url": "https://www.googleapis.com/robot/v1/metadata/x509/firebase-adminsdk-y8ueu%40ceuapp-prod.iam.gserviceaccount.com"
}
