<?xml version="1.0" encoding="utf-8"?>
<!-- Generator: Adobe Illustrator 22.1.0, SVG Export Plug-In . SVG Version: 6.00 Build 0)  -->
<svg version="1.1" id="Camada_1" xmlns="http://www.w3.org/2000/svg" xmlns:xlink="http://www.w3.org/1999/xlink" x="0px" y="0px"
	 viewBox="0 0 1000 877" style="enable-background:new 0 0 1000 877;" xml:space="preserve">
<style type="text/css">
	.st0{fill:#359EC1;}
	.st1{fill:#006CA1;}
	.st2{fill:#F9B200;}
</style>
<g>
	<path class="st0" d="M46.3,20.3c-10.5-11-20-14.3-28.1-9.8C9.9,15,7.5,24.6,11,39.5L124.4,580c3.6,17.8,9.2,29.6,16.9,35.3
		c7.6,5.7,16.9,8.7,27.6,8.9l436.4,13.9c17.3,1.2,27.2-3,29.6-12.7c2.4-9.6,0.1-17.9-6.7-24.9L46.3,20.3z"/>
	<path class="st1" d="M959.4,852.3c10.5,11,19.9,14.3,28.1,9.8c8.2-4.5,10.6-14.1,7.1-28.9L881.3,292.6
		c-3.6-17.8-9.2-29.6-16.9-35.3c-7.6-5.7-16.9-8.7-27.6-8.9l-436.4-14c-17.4-1.2-27.2,3-29.6,12.7c-2.4,9.6-0.1,17.9,6.7,24.8
		L959.4,852.3z"/>
</g>
<g>
	<path class="st1" d="M104.3,789.5c-1.2,0-2.1-0.3-2.8-1c-0.7-0.7-1-1.6-1-2.8l-0.3-79.5c0-1.2,0.3-2.1,1-2.8c0.7-0.7,1.6-1,2.8-1
		l4.5,0c1.2,0,2.1,0.3,2.8,1c0.7,0.7,1,1.6,1,2.8l0.3,79.4c0,1.2-0.3,2.1-1,2.8c-0.7,0.7-1.6,1-2.8,1L104.3,789.5z"/>
	<path class="st1" d="M182.4,789.2c-1.2,0-2.2-0.3-2.9-0.9c-0.7-0.6-1.5-1.6-2.3-2.9l-32.8-56.9c-0.4-0.7-0.9-0.9-1.3-0.8
		c-0.5,0.2-0.7,0.6-0.7,1.3l0.2,56.5c0,1.2-0.3,2.1-1,2.8c-0.7,0.7-1.6,1-2.8,1l-4.5,0c-1.2,0-2.1-0.3-2.8-1c-0.7-0.7-1-1.6-1-2.8
		l-0.3-79.4c0-1.2,0.3-2.1,1-2.8c0.7-0.7,1.6-1,2.8-1l5,0c1.3,0,2.3,0.2,3.2,0.7c0.9,0.5,1.6,1.3,2.3,2.5l31.3,54.1
		c0.3,0.5,0.7,0.7,1.2,0.6c0.5-0.1,0.7-0.5,0.7-1.2l-0.2-53.1c0-1.2,0.3-2.1,1-2.8c0.7-0.7,1.6-1,2.8-1l4.5,0c1.2,0,2.1,0.3,2.8,1
		c0.7,0.7,1,1.6,1,2.8l0.3,79.5c0,1.2-0.3,2.1-1,2.8c-0.7,0.7-1.6,1-2.8,1L182.4,789.2z"/>
	<path class="st1" d="M231.8,789c-1.2,0-2.2-0.2-2.9-0.7c-0.7-0.5-1.3-1.4-1.7-2.8l-25.9-80c-0.7-2.4,0.2-3.6,2.7-3.6l6.3,0
		c2.3,0,3.8,1,4.4,3.1l20.4,67.7c0.3,0.9,0.7,1.4,1.3,1.4c0.6,0,1-0.5,1.3-1.4l19.9-67.9c0.6-2,2-3.1,4.3-3.1l6.3,0
		c2.5,0,3.4,1.2,2.7,3.6l-25.3,80.2c-0.4,1.4-1,2.3-1.7,2.8c-0.7,0.5-1.7,0.7-2.9,0.7L231.8,789z"/>
	<path class="st1" d="M286.2,788.8c-1.2,0-2.1-0.3-2.8-1c-0.7-0.7-1-1.6-1-2.8l-0.3-79.4c0-1.2,0.3-2.1,1-2.8c0.7-0.7,1.6-1,2.8-1
		l42.3-0.2c1.2,0,2.1,0.3,2.8,1c0.7,0.7,1,1.6,1,2.8l0,3.8c0,1.2-0.3,2.1-1,2.8c-0.7,0.7-1.6,1-2.8,1l-32.7,0.1
		c-0.9,0-1.3,0.4-1.3,1.3l0.1,23.1c0,0.9,0.4,1.3,1.3,1.3l30.1-0.1c1.2,0,2.1,0.3,2.8,1c0.7,0.7,1,1.6,1,2.8l0,3.8
		c0,1.2-0.3,2.1-1,2.8c-0.7,0.7-1.6,1-2.8,1l-30.1,0.1c-0.9,0-1.3,0.4-1.3,1.3l0.1,24.3c0,0.9,0.4,1.3,1.3,1.3l35.2-0.1
		c1.2,0,2.1,0.3,2.8,1c0.7,0.7,1,1.6,1,2.8l0,3.8c0,1.2-0.3,2.1-1,2.8c-0.7,0.7-1.6,1-2.8,1L286.2,788.8z"/>
	<path class="st1" d="M402.2,788.3c-1.2,0-2.2-0.3-2.9-0.9c-0.7-0.6-1.5-1.6-2.2-2.9l-32.8-56.9c-0.4-0.7-0.9-0.9-1.4-0.8
		c-0.5,0.2-0.7,0.6-0.7,1.3l0.2,56.5c0,1.2-0.3,2.1-1,2.8c-0.7,0.7-1.6,1-2.8,1l-4.5,0c-1.2,0-2.1-0.3-2.8-1c-0.7-0.7-1-1.6-1-2.8
		l-0.3-79.4c0-1.2,0.3-2.1,1-2.8c0.7-0.7,1.6-1,2.8-1l5,0c1.3,0,2.3,0.2,3.2,0.7c0.9,0.5,1.6,1.3,2.3,2.5l31.3,54.1
		c0.3,0.5,0.7,0.7,1.2,0.6c0.5-0.1,0.7-0.5,0.7-1.2l-0.2-53.1c0-1.2,0.3-2.1,1-2.8c0.7-0.7,1.6-1,2.8-1l4.5,0c1.2,0,2.1,0.3,2.8,1
		c0.7,0.7,1,1.6,1,2.8l0.3,79.4c0,1.2-0.3,2.1-1,2.8c-0.7,0.7-1.6,1-2.8,1L402.2,788.3z"/>
	<path class="st1" d="M449.6,788.1c-1.2,0-2.1-0.3-2.8-1c-0.7-0.7-1-1.6-1-2.8l-0.3-70.5c0-0.9-0.4-1.3-1.3-1.3l-19.2,0.1
		c-1.2,0-2.1-0.3-2.8-1c-0.7-0.7-1-1.6-1-2.8l0-3.8c0-1.2,0.3-2.1,1-2.8c0.7-0.7,1.6-1,2.8-1l53.2-0.2c1.2,0,2.1,0.3,2.8,1
		c0.7,0.7,1,1.6,1,2.8l0,3.8c0,1.2-0.3,2.1-1,2.8c-0.7,0.7-1.6,1-2.8,1l-19.2,0.1c-0.9,0-1.3,0.4-1.3,1.3l0.3,70.5
		c0,1.2-0.3,2.1-1,2.8c-0.7,0.7-1.6,1-2.8,1L449.6,788.1z"/>
	<path class="st2" d="M484.1,761.7c-1.2,0-2.1-0.3-2.8-1c-0.7-0.7-1-1.6-1-2.8l0-3.2c0-1.2,0.3-2.1,1-2.8c0.7-0.7,1.6-1,2.8-1
		l47.5-0.1c1.2,0,2.1,0.3,2.8,1c0.7,0.7,1,1.6,1,2.8l0,3.2c0,1.2-0.3,2.1-1,2.8c-0.7,0.7-1.6,1-2.8,1L484.1,761.7z"/>
	<path class="st2" d="M584.2,787.6c-0.9,0.7-1.8,1-2.9,0.9c-1.1-0.1-2.1-0.4-3-0.9L541,765.9c-0.6-0.3-1.1-0.3-1.6,0
		c-0.5,0.3-0.8,0.8-1,1.3l-5.2,17.4c-0.6,2.1-2,3.1-4.3,3.1l-6.3,0c-2.5,0-3.4-1.2-2.7-3.6l25.3-80.2c0.4-1.4,1-2.3,1.7-2.8
		c0.7-0.5,1.7-0.7,2.9-0.7l9,0c1.2,0,2.2,0.2,2.9,0.7c0.7,0.5,1.3,1.4,1.7,2.8l24.8,76.5c0.6,2,0.3,3.5-1,4.6L584.2,787.6z
		 M555.6,716.8c-0.3-0.9-0.7-1.4-1.3-1.4c-0.6,0-1,0.5-1.3,1.4l-10,33.9c-0.3,1.1-0.4,1.9-0.1,2.5c0.3,0.6,0.7,1,1.3,1.3l24.1,14
		c0.9,0.6,1.6,0.7,2.1,0.2c0.4-0.5,0.6-1,0.4-1.6L555.6,716.8z"/>
	<path class="st1" d="M604.6,787.5c-1.2,0-2.1-0.3-2.8-1c-0.7-0.7-1-1.6-1-2.8l-0.3-79.5c0-1.2,0.3-2.1,1-2.8c0.7-0.7,1.6-1,2.8-1
		l26.9-0.1c3.4,0,6.7,0.7,9.7,2c3.1,1.4,5.7,3.2,8,5.5c2.2,2.3,4,5.1,5.3,8.2c1.3,3.1,2,6.4,2,9.8c0,3.5-0.6,6.8-2,9.9
		c-1.3,3.1-3.1,5.8-5.3,8.2c-2.2,2.4-4.9,4.2-7.9,5.6c-3.1,1.4-6.3,2.1-9.7,2.1l-17.3,0.1c-0.9,0-1.3,0.4-1.3,1.3l0.1,30.8
		c0,1.2-0.3,2.1-1,2.8c-0.7,0.7-1.6,1-2.8,1L604.6,787.5z M630.4,740c1.7,0,3.4-0.3,5-0.9c1.6-0.6,3.1-1.5,4.3-2.7
		c1.3-1.2,2.3-2.7,3.1-4.4c0.8-1.8,1.2-3.8,1.2-6.1c0-2.3-0.4-4.3-1.2-6.1c-0.8-1.7-1.9-3.2-3.2-4.4c-1.3-1.2-2.7-2.1-4.4-2.7
		c-1.6-0.6-3.3-0.9-5-0.9l-16.4,0.1c-0.9,0-1.3,0.4-1.3,1.3l0.1,25.6c0,0.9,0.4,1.3,1.3,1.3L630.4,740z"/>
	<path class="st1" d="M671.2,787.2c-1.2,0-2.1-0.3-2.8-1c-0.7-0.7-1-1.6-1-2.8l-0.3-79.4c0-1.2,0.3-2.1,1-2.8c0.7-0.7,1.6-1,2.8-1
		l26.9-0.1c3.4,0,6.7,0.7,9.8,2c3.1,1.3,5.7,3.2,8,5.5c2.2,2.3,4,5.1,5.3,8.2c1.3,3.1,2,6.4,2,9.8c0,3.5-0.6,6.8-1.9,9.9
		c-1.3,3.1-3.1,5.8-5.3,8.2c-2.2,2.4-4.9,4.2-7.9,5.6c-3.1,1.4-6.3,2.1-9.7,2.1l-17.3,0.1c-0.9,0-1.3,0.4-1.3,1.3l0.1,30.8
		c0,1.2-0.3,2.1-1,2.8c-0.7,0.7-1.6,1-2.8,1L671.2,787.2z M697.1,739.7c1.7,0,3.4-0.3,5-0.9c1.6-0.6,3.1-1.5,4.3-2.7
		c1.3-1.2,2.3-2.7,3.1-4.4c0.8-1.8,1.2-3.8,1.2-6.1c0-2.3-0.4-4.3-1.2-6.1c-0.8-1.7-1.9-3.2-3.2-4.4c-1.3-1.2-2.7-2.1-4.4-2.7
		c-1.6-0.6-3.3-0.9-5-0.9l-16.4,0.1c-0.9,0-1.3,0.4-1.3,1.3l0.1,25.6c0,0.9,0.4,1.3,1.3,1.3L697.1,739.7z"/>
</g>
</svg>
