<?xml version="1.0" encoding="utf-8"?>
<!-- Generator: Adobe Illustrator 22.0.1, SVG Export Plug-In . SVG Version: 6.00 Build 0)  -->
<svg version="1.1" id="Camada_1" xmlns="http://www.w3.org/2000/svg" xmlns:xlink="http://www.w3.org/1999/xlink" x="0px" y="0px"
	 viewBox="0 0 295 560" style="enable-background:new 0 0 295 560;" xml:space="preserve">
<style type="text/css">
	.st0{fill:url(#SVGID_1_);}
	.st1{fill:#323232;stroke:#5A5A5A;stroke-width:0.75;}
	.st2{fill:#5A5A5A;}
	.st3{fill:#323232;stroke:url(#SVGID_2_);stroke-width:2;}
	.st4{fill:#F0F0F0;stroke:#545454;}
	.st5{fill:url(#SVGID_3_);}
	.st6{fill:url(#SVGID_4_);}
	.st7{opacity:0.68;fill:url(#SVGID_5_);enable-background:new    ;}
</style>
<title>Asset 1</title>
<g id="Layer_2">
	<g id="Layer_1-2">
		
			<linearGradient id="SVGID_1_" gradientUnits="userSpaceOnUse" x1="453.7838" y1="818.8571" x2="731.2838" y2="1386.8572" gradientTransform="matrix(0.79 0 0 0.79 -321.58 -593.28)">
			<stop  offset="0" style="stop-color:#CACACA"/>
			<stop  offset="1" style="stop-color:#A5A5A5"/>
		</linearGradient>
		<path class="st0" d="M48.8,0h197.3c27,0,48.8,21.9,48.8,48.8v462.3c0,27-21.9,48.8-48.8,48.8H48.8C21.9,560,0,538.1,0,511.2V48.8
			C0,21.9,21.9,0,48.8,0z"/>
		<path class="st1" d="M50,5.6H245c24.4,0,44.2,19.8,44.2,44.2v460.5c0,24.4-19.8,44.2-44.2,44.2H50c-24.4,0-44.2-19.8-44.2-44.2
			V49.7C5.9,25.3,25.6,5.6,50,5.6z"/>
		<circle class="st2" cx="85.1" cy="22.3" r="3.2"/>
		<circle class="st2" cx="94.1" cy="22.3" r="3.2"/>
		<path class="st2" d="M119.4,19.3h56.2c1.6,0,2.9,1.3,2.9,2.9l0,0l0,0c0,1.6-1.3,2.9-2.9,2.8h-56.2c-1.6,0-2.9-1.3-2.9-2.9
			c0,0,0,0,0,0l0,0C116.5,20.6,117.8,19.3,119.4,19.3z"/>
		
			<linearGradient id="SVGID_2_" gradientUnits="userSpaceOnUse" x1="590.2913" y1="1431.2424" x2="596.8912" y2="1405.7424" gradientTransform="matrix(0.79 0 0 0.79 -321.58 -593.28)">
			<stop  offset="0" style="stop-color:#CDCDCD"/>
			<stop  offset="0.48" style="stop-color:#FFFFFF"/>
			<stop  offset="1" style="stop-color:#8F8F8F"/>
		</linearGradient>
		<path class="st3" d="M127.4,517.5h39.5c5.8,0,10.6,4.7,10.6,10.6l0,0c0,5.8-4.7,10.6-10.6,10.6h-39.5c-5.8,0-10.6-4.7-10.6-10.6
			l0,0C116.8,522.3,121.5,517.5,127.4,517.5z"/>
		<path class="st4" d="M19,46.1h256.8c2.3,0,4.2,1.9,4.2,4.2v435.9c0,2.3-1.9,4.2-4.2,4.2H19c-2.3,0-4.2-1.9-4.2-4.2V50.2
			C14.9,47.9,16.7,46.1,19,46.1z"/>
		
			<linearGradient id="SVGID_3_" gradientUnits="userSpaceOnUse" x1="-437.3038" y1="545.0021" x2="-442.1038" y2="538.0621" gradientTransform="matrix(1.07 0 0 1.07 535.45 -558.79)">
			<stop  offset="0" style="stop-color:#B6B6B6"/>
			<stop  offset="1" style="stop-color:#5A5A5A"/>
		</linearGradient>
		<path class="st5" d="M73.1,22.3c0,3.8-3.1,6.9-6.9,6.9l0,0l0,0c-3.8,0-6.9-3.1-6.9-6.9l0,0c0-3.8,3.1-6.9,6.9-6.9l0,0l0,0
			C69.9,15.4,73.1,18.5,73.1,22.3L73.1,22.3z"/>
		
			<radialGradient id="SVGID_4_" cx="-440.521" cy="542.0266" r="4.74" gradientTransform="matrix(1.07 0 0 1.07 535.45 -558.79)" gradientUnits="userSpaceOnUse">
			<stop  offset="0" style="stop-color:#9BCAFA"/>
			<stop  offset="1" style="stop-color:#4C6988"/>
		</radialGradient>
		<path class="st6" d="M71.1,22.3c0,2.8-2.3,5-5,5s-5-2.3-5-5l0,0c0-2.8,2.2-5,4.9-5c0,0,0.1,0,0.1,0l0,0
			C68.9,17.2,71.1,19.5,71.1,22.3C71.1,22.3,71.1,22.3,71.1,22.3z"/>
		
			<linearGradient id="SVGID_5_" gradientUnits="userSpaceOnUse" x1="-835.686" y1="566.272" x2="-835.686" y2="572.212" gradientTransform="matrix(0.9266 -0.535 0.535 0.9266 533.2644 -956.9236)">
			<stop  offset="0" style="stop-color:#FFFFFF"/>
			<stop  offset="1" style="stop-color:#FFFFFF;stop-opacity:0"/>
		</linearGradient>
		<path class="st7" d="M63.7,18.2c1.9-1.1,4.1-0.8,4.9,0.5s-0.1,3.4-2,4.5c-1.9,1.1-4.1,0.8-4.9-0.5S61.9,19.3,63.7,18.2z"/>
	</g>
</g>
</svg>
