{
    "functions": {
        "source": "functions"
    },
    "hosting": {
        "public": "public",
        "ignore": [
            "firebase.json",
            "**/.",
            "**/node_modules/**"
        ],
        "rewrites": [{
            "source": "/api/v1/**",
            "destination": "/index.html"
        }]
    }
}