[0315/122255.670:ERROR:crash_report_database_win.cc(428)] unexpected header
[0315/150020.105:ERROR:crash_report_database_win.cc(428)] unexpected header
[0316/102234.083:ERROR:crash_report_database_win.cc(428)] unexpected header
[0316/151137.987:ERROR:crash_report_database_win.cc(428)] unexpected header
[0317/105053.502:ERROR:crash_report_database_win.cc(428)] unexpected header
[0318/111911.742:ERROR:crash_report_database_win.cc(428)] unexpected header
[0319/111754.828:ERROR:crash_report_database_win.cc(428)] unexpected header
[0319/195331.048:ERROR:crash_report_database_win.cc(428)] unexpected header
[0320/091638.273:ERROR:crash_report_database_win.cc(428)] unexpected header
[0320/154748.095:ERROR:crash_report_database_win.cc(428)] unexpected header
[0320/161245.725:ERROR:crash_report_database_win.cc(428)] unexpected header
[0321/095604.804:ERROR:crash_report_database_win.cc(428)] unexpected header
[0322/090319.853:ERROR:crash_report_database_win.cc(428)] unexpected header
[0325/090528.876:ERROR:crash_report_database_win.cc(428)] unexpected header
[0325/143706.661:ERROR:crash_report_database_win.cc(428)] unexpected header
[0325/183347.685:ERROR:crash_report_database_win.cc(428)] unexpected header
[0326/100826.202:ERROR:crash_report_database_win.cc(428)] unexpected header
[0327/090251.913:ERROR:crash_report_database_win.cc(428)] unexpected header
[0327/181737.220:ERROR:crash_report_database_win.cc(428)] unexpected header
[0328/101856.207:ERROR:crash_report_database_win.cc(428)] unexpected header
[0329/094047.663:ERROR:crash_report_database_win.cc(428)] unexpected header
[0329/173646.620:ERROR:crash_report_database_win.cc(428)] unexpected header
[0401/140826.131:ERROR:crash_report_database_win.cc(428)] unexpected header
[0402/092344.082:ERROR:crash_report_database_win.cc(428)] unexpected header
[0403/092901.923:ERROR:crash_report_database_win.cc(428)] unexpected header
[0404/112654.304:ERROR:crash_report_database_win.cc(428)] unexpected header
[0405/101134.257:ERROR:crash_report_database_win.cc(428)] unexpected header
[0408/122840.929:ERROR:crash_report_database_win.cc(428)] unexpected header
[0409/095354.131:ERROR:crash_report_database_win.cc(428)] unexpected header
[0410/120548.878:ERROR:crash_report_database_win.cc(428)] unexpected header
[0410/195714.404:ERROR:crash_report_database_win.cc(428)] unexpected header
[0410/212413.455:ERROR:crash_report_database_win.cc(428)] unexpected header
[0411/083548.611:ERROR:crash_report_database_win.cc(428)] unexpected header
[0411/113525.754:ERROR:crash_report_database_win.cc(428)] unexpected header
[0411/135859.102:ERROR:crash_report_database_win.cc(428)] unexpected header
[0411/144149.772:ERROR:crash_report_database_win.cc(428)] unexpected header
[0411/154311.882:ERROR:crash_report_database_win.cc(428)] unexpected header
