<?xml version="1.0" encoding="utf-8"?>
<!-- Generator: Adobe Illustrator 17.0.0, SVG Export Plug-In . SVG Version: 6.00 Build 0)  -->
<!DOCTYPE svg PUBLIC "-//W3C//DTD SVG 1.1//EN" "http://www.w3.org/Graphics/SVG/1.1/DTD/svg11.dtd">
<svg version="1.1" id="Calque_1" xmlns="http://www.w3.org/2000/svg" xmlns:xlink="http://www.w3.org/1999/xlink" x="0px" y="0px"
	 width="500px" height="500px" viewBox="0 0 500 500" enable-background="new 0 0 500 500" xml:space="preserve">
<g id="XMLID_801_">
	<g id="XMLID_822_">
		<g id="XMLID_826_">
			<path id="XMLID_835_"  d="M473.697,361.849V153.065c-0.024-20.58-16.703-37.259-37.283-37.283h-82.022V26.303
				h-14.913v171.501c0,4.118,3.339,7.457,7.457,7.457h25.278L250,278.589l-122.213-73.328h25.278c4.118,0,7.457-3.339,7.457-7.457
				V26.303h-14.913v89.479H63.586c-20.58,0.024-37.259,16.703-37.283,37.283v208.784c0.024,20.58,16.703,37.259,37.283,37.283
				h122.154l-14.913,29.826H33.759c-4.118,0-7.457,3.339-7.457,7.457c0,37.283,39.289,37.283,52.196,37.283h343.002
				c12.907,0,52.196,0,52.196-37.283c0-4.118-3.339-7.457-7.457-7.457H329.174l-14.913-29.826h122.154
				C456.994,399.107,473.673,382.429,473.697,361.849z M145.608,190.347h-44.739c-4.118,0.001-7.456,3.341-7.454,7.459
				c0.001,2.616,1.372,5.04,3.615,6.388l149.131,89.479c2.363,1.42,5.317,1.42,7.68,0l149.131-89.479
				c3.529-2.122,4.67-6.703,2.548-10.233c-1.348-2.242-3.772-3.614-6.388-3.615h-44.739v-29.826h74.566v178.958H71.042V160.521
				h74.566V190.347z M457.882,443.871c-2.602,9.179-11.602,14.913-36.381,14.913H78.499c-24.778,0-33.778-5.734-36.381-14.913
				H457.882z M187.499,428.958l14.913-29.826h95.176l14.913,29.826H187.499z M63.586,384.218c-12.355,0-22.37-10.015-22.37-22.37
				V153.065c0-12.355,10.015-22.37,22.37-22.37h82.022v14.913H63.586c-4.118,0-7.457,3.339-7.457,7.457v193.871
				c0,4.118,3.339,7.457,7.457,7.457h372.829c4.118,0,7.457-3.339,7.457-7.457V153.065c0-4.118-3.339-7.457-7.457-7.457h-82.022
				v-14.913h82.022c12.355,0,22.37,10.015,22.37,22.37v208.784c0,12.355-10.015,22.37-22.37,22.37H63.586z"/>
		</g>
	</g>
	<g id="XMLID_805_">
		<g id="XMLID_806_">
			<path id="XMLID_809_"  d="M282.533,138.494c11.633-9.153,18.791-22.849,19.663-37.626
				c0-49.303-28.387-59.653-52.196-59.653s-52.196,10.35-52.196,59.653c0.866,14.785,8.024,28.49,19.663,37.648
				c-19.766,2.436-34.605,19.239-34.576,39.154v27.589h14.913v-27.589c0-13.59,11.017-24.607,24.607-24.607h55.179
				c13.59,0,24.607,11.017,24.607,24.607v27.589h14.913v-27.589C317.149,157.747,302.307,140.931,282.533,138.494z M213.105,92.972
				c2.021-24.987,13.78-36.843,36.895-36.843c21.162,0,32.809,10.007,36.142,30.885l-24.845-14.913
				c-3.532-2.119-8.112-0.973-10.23,2.559c-0.28,0.466-0.507,0.96-0.679,1.475C246.615,87.454,226.243,91.734,213.105,92.972z
				 M250,138.151c-16.631-2.833-30.466-14.365-36.246-30.214v-0.022c12.766-1.051,35.792-4.914,46.529-19.044l26.65,15.987
				C283.942,123.141,261.446,138.151,250,138.151z"/>
		</g>
	</g>
	<g id="XMLID_802_">
		<g id="XMLID_803_">
			<polygon id="XMLID_804_"  points="399.131,294.739 399.131,279.826 384.218,279.826 384.218,294.739 
				369.305,294.739 369.305,309.653 384.218,309.653 384.218,324.566 399.131,324.566 399.131,309.653 414.045,309.653 
				414.045,294.739 			"/>
		</g>
	</g>
</g>
</svg>
