<?xml version="1.0" encoding="utf-8"?>
<!-- Generator: Adobe Illustrator 17.0.0, SVG Export Plug-In . SVG Version: 6.00 Build 0)  -->
<!DOCTYPE svg PUBLIC "-//W3C//DTD SVG 1.1//EN" "http://www.w3.org/Graphics/SVG/1.1/DTD/svg11.dtd">
<svg version="1.1" id="Calque_1" xmlns="http://www.w3.org/2000/svg" xmlns:xlink="http://www.w3.org/1999/xlink" x="0px" y="0px"
	 width="500px" height="500px" viewBox="0 0 500 500" enable-background="new 0 0 500 500" xml:space="preserve">
<g id="XMLID_2829_">
	<g id="XMLID_2846_">
		<g id="XMLID_2847_">
			<path id="XMLID_2848_"  d="M423.201,76.8C376.938,30.534,315.428,5.056,250,5.056S123.062,30.534,76.8,76.8
				C30.534,123.062,5.056,184.572,5.056,250S30.534,376.938,76.8,423.201c46.263,46.265,107.773,71.743,173.2,71.743
				s126.938-25.478,173.201-71.743c46.265-46.264,71.743-107.773,71.743-173.201S469.466,123.062,423.201,76.8z M250,475.427
				C125.699,475.427,24.573,374.301,24.573,250S125.699,24.573,250,24.573S475.427,125.699,475.427,250S374.301,475.427,250,475.427
				z"/>
		</g>
	</g>
	<g id="XMLID_2843_">
		<g id="XMLID_2844_">
			<path id="XMLID_2845_"  d="M447.229,290.311c-5.228-1.332-10.536,1.825-11.864,7.049
				c-5.443,21.375-14.503,41.504-26.927,59.828c-3.025,4.462-1.859,10.529,2.602,13.554c1.677,1.137,3.582,1.682,5.468,1.682
				c3.127,0,6.2-1.5,8.086-4.285c13.695-20.198,23.682-42.393,29.684-65.963C455.608,296.954,452.453,291.641,447.229,290.311z"/>
		</g>
	</g>
	<g id="XMLID_2840_">
		<g id="XMLID_2841_">
			<path id="XMLID_2842_"  d="M451.03,240.241c-5.389,0-9.759,4.37-9.759,9.759c0,2.789-0.06,5.602-0.18,8.362
				c-0.233,5.385,3.943,9.938,9.328,10.171c0.143,0.007,0.286,0.01,0.429,0.01c5.195,0,9.516-4.097,9.742-9.338
				c0.132-3.039,0.198-6.135,0.198-9.205C460.789,244.611,456.419,240.241,451.03,240.241z"/>
		</g>
	</g>
	<g id="XMLID_2835_">
		<g id="XMLID_2836_">
			<path id="XMLID_2837_"  d="M250,170.467c-18.833,0-34.155,15.322-34.155,34.155v169.802
				c0,18.833,15.322,34.155,34.155,34.155c18.833,0,34.155-15.322,34.155-34.155V204.622
				C284.155,185.788,268.833,170.467,250,170.467z M264.638,374.424c0,8.072-6.567,14.638-14.638,14.638
				s-14.638-6.567-14.638-14.638V204.622c0-8.072,6.567-14.638,14.638-14.638c8.072,0,14.638,6.567,14.638,14.638V374.424z"/>
		</g>
	</g>
	<g id="XMLID_2830_">
		<g id="XMLID_2831_">
			<path id="XMLID_2832_"  d="M274.145,101.414c-6.365-6.351-15.166-9.993-24.145-9.993
				c-8.98,0-17.781,3.642-24.156,10.002c-6.355,6.357-10,15.16-10,24.154c0,8.979,3.642,17.78,10.008,24.16
				c6.365,6.352,15.166,9.995,24.147,9.995c8.98,0,17.781-3.643,24.16-10.009c6.352-6.365,9.995-15.166,9.995-24.146
				C284.155,116.582,280.511,107.778,274.145,101.414z M260.359,135.922c-2.735,2.727-6.51,4.292-10.359,4.292
				c-3.852,0-7.628-1.565-10.346-4.277c-2.727-2.735-4.292-6.511-4.292-10.36c0-3.858,1.562-7.632,4.276-10.346
				c2.735-2.727,6.511-4.292,10.362-4.292c3.85,0,7.627,1.565,10.352,4.285c2.724,2.724,4.286,6.497,4.286,10.353
				C264.638,129.427,263.073,133.203,260.359,135.922z"/>
		</g>
	</g>
</g>
</svg>
