<?xml version="1.0" encoding="utf-8"?>
<!-- Generator: Adobe Illustrator 17.0.0, SVG Export Plug-In . SVG Version: 6.00 Build 0)  -->
<!DOCTYPE svg PUBLIC "-//W3C//DTD SVG 1.1//EN" "http://www.w3.org/Graphics/SVG/1.1/DTD/svg11.dtd">
<svg version="1.1" id="Calque_1" xmlns="http://www.w3.org/2000/svg" xmlns:xlink="http://www.w3.org/1999/xlink" x="0px" y="0px"
	 width="500px" height="500px" viewBox="0 0 500 500" enable-background="new 0 0 500 500" xml:space="preserve">
<g id="XMLID_2283_">
	<path id="XMLID_2191_"  d="M249.999,488.076l-5.775-8.522c-0.305-0.456-31.162-46.093-64.557-102.953l12.027-7.065
		c24.632,41.942,47.86,77.714,58.302,93.522c27.515-41.701,143.849-222.249,143.849-293.337
		c0-79.319-64.528-143.846-143.846-143.846c-79.316,0-143.846,64.528-143.846,143.846c0,33.258,26.352,96.795,76.209,183.74
		l-12.099,6.94c-51.798-90.328-78.057-154.484-78.057-190.68c0-87.009,70.785-157.797,157.794-157.797
		s157.797,70.788,157.797,157.797c0,84.469-145.814,300.673-152.025,309.834L249.999,488.076z"/>
	<path id="XMLID_2190_"  d="M224.881,255.306l-81.117-81.114l45.357-45.354l35.76,35.76l85.67-85.673l45.351,45.354
		l-47.016,47.019l-11.187-11.187l35.832-35.832l-22.98-22.977l-85.67,85.673l-35.76-35.76l-22.974,22.977l58.733,58.737
		l57.896-57.903l11.19,11.19L224.881,255.306z"/>
	<g id="XMLID_2127_">
		<g id="XMLID_2128_">
			<g id="XMLID_2129_">
				<path id="XMLID_2162_"  d="M235.831,276.018h-28.398v28.398h28.398V276.018z M230.152,298.736h-17.039v-17.039
					h17.039V298.736z"/>
				<rect id="XMLID_2161_" x="218.792" y="287.377"  width="5.68" height="5.68"/>
				<path id="XMLID_2152_"  d="M269.909,276.018v28.398h28.398v-28.398H269.909z M292.627,298.736h-17.039v-17.039
					h17.039V298.736z"/>
				<rect id="XMLID_2151_" x="281.268" y="287.377"  width="5.68" height="5.68"/>
				<path id="XMLID_2148_"  d="M207.433,366.891h28.398v-28.398h-28.398V366.891z M213.113,344.173h17.039v17.039
					h-17.039V344.173z"/>
				<rect id="XMLID_2147_" x="218.792" y="349.853"  width="5.68" height="5.68"/>
				<rect id="XMLID_2146_" x="252.87" y="276.018"  width="11.359" height="5.68"/>
				<polygon id="XMLID_2145_"  points="252.87,298.736 258.549,298.736 258.549,293.057 264.229,293.057 
					264.229,287.377 247.19,287.377 247.19,281.698 241.511,281.698 241.511,287.377 241.511,290.217 241.511,293.057 
					252.87,293.057 				"/>
				<rect id="XMLID_2144_" x="241.511" y="298.736"  width="5.68" height="5.68"/>
				<polygon id="XMLID_2143_"  points="264.229,304.416 258.549,304.416 258.549,310.096 241.511,310.096 
					241.511,315.775 264.229,315.775 				"/>
				<polygon id="XMLID_2142_"  points="213.113,327.134 218.792,327.134 218.792,321.455 213.113,321.455 
					213.113,310.096 207.433,310.096 207.433,332.814 213.113,332.814 				"/>
				<rect id="XMLID_2141_" x="218.792" y="310.096"  width="5.68" height="5.68"/>
				<polygon id="XMLID_2140_"  points="241.511,332.814 252.87,332.814 252.87,327.134 247.19,327.134 
					247.19,321.455 235.831,321.455 235.831,310.096 230.152,310.096 230.152,321.455 224.472,321.455 224.472,332.814 
					230.152,332.814 230.152,327.134 232.991,327.134 235.831,327.134 241.511,327.134 				"/>
				<rect id="XMLID_2139_" x="258.549" y="321.455"  width="5.68" height="11.359"/>
				<polygon id="XMLID_2138_"  points="258.549,338.493 241.511,338.493 241.511,344.173 252.87,344.173 
					252.87,361.212 241.511,361.212 241.511,366.891 258.549,366.891 258.549,361.212 269.909,361.212 269.909,355.532 
					258.549,355.532 				"/>
				<rect id="XMLID_2137_" x="241.511" y="349.853"  width="5.68" height="5.68"/>
				<rect id="XMLID_2136_" x="264.229" y="338.493"  width="5.68" height="11.359"/>
				<polygon id="XMLID_2135_"  points="292.627,349.853 275.588,349.853 275.588,366.891 281.268,366.891 
					281.268,355.532 292.627,355.532 				"/>
				<rect id="XMLID_2134_" x="286.947" y="361.212"  width="11.359" height="5.68"/>
				<rect id="XMLID_2133_" x="292.627" y="338.493"  width="5.68" height="5.68"/>
				<polygon id="XMLID_2132_"  points="275.588,344.173 281.268,344.173 281.268,327.134 269.909,327.134 
					269.909,332.814 275.588,332.814 				"/>
				<polygon id="XMLID_2131_"  points="286.947,315.775 281.268,315.775 281.268,310.096 275.588,310.096 
					275.588,315.775 269.909,315.775 269.909,321.455 292.627,321.455 292.627,315.775 298.306,315.775 298.306,310.096 
					286.947,310.096 				"/>
				<rect id="XMLID_2130_" x="286.947" y="327.134"  width="11.359" height="5.68"/>
			</g>
		</g>
	</g>
</g>
</svg>
