<?xml version="1.0" encoding="UTF-8" standalone="no"?>
<!DOCTYPE svg PUBLIC "-//W3C//DTD SVG 1.1//EN" "http://www.w3.org/Graphics/SVG/1.1/DTD/svg11.dtd">
<svg width="100%" height="100%" viewBox="0 0 512 512" version="1.1" xmlns="http://www.w3.org/2000/svg" xmlns:xlink="http://www.w3.org/1999/xlink" xml:space="preserve" xmlns:serif="http://www.serif.com/" style="fill-rule:evenodd;clip-rule:evenodd;stroke-linecap:round;stroke-linejoin:round;stroke-miterlimit:1.5;">
    <g transform="matrix(1,0,0,1,3.16248,2.37649)">
        <path d="M478.077,170.751C478.077,125.012 440.943,87.878 395.204,87.878L110.471,87.878C64.732,87.878 27.598,125.012 27.598,170.751L27.598,336.496C27.598,382.235 64.732,419.369 110.471,419.369L395.204,419.369C440.943,419.369 478.077,382.235 478.077,336.496L478.077,170.751Z" style="fill:none;stroke:white;stroke-width:44px;"/>
    </g>
    <g transform="matrix(1.25947,0,0,1.27088,-70.0784,-7.03359)">
        <path d="M395.567,229.856C395.567,217.225 385.219,206.97 372.473,206.97L264.304,206.97C251.558,206.97 241.21,217.225 241.21,229.856L241.21,275.629C241.21,288.26 251.558,298.515 264.304,298.515L372.473,298.515C385.219,298.515 395.567,288.26 395.567,275.629L395.567,229.856Z" style="fill:white;"/>
    </g>
</svg>
